%YAML 1.1
%TAG !u! tag:unity3d.com,2011:
--- !u!74 &7400000
AnimationClip:
  m_ObjectHideFlags: 0
  m_CorrespondingSourceObject: {fileID: 0}
  m_PrefabInternal: {fileID: 0}
  m_Name: walking
  serializedVersion: 6
  m_Legacy: 0
  m_Compressed: 0
  m_UseHighQualityCurve: 1
  m_RotationCurves: []
  m_CompressedRotationCurves: []
  m_EulerCurves: []
  m_PositionCurves: []
  m_ScaleCurves: []
  m_FloatCurves: []
  m_PPtrCurves:
  - curve:
    - time: 0
      value: {fileID: 21300000, guid: 4a587e1c913636f4c812f857e5aa6c84, type: 3}
    - time: 0.083333336
      value: {fileID: 21300000, guid: c9c8166c52da6634eb2eaee5eb18d77a, type: 3}
    - time: 0.16666667
      value: {fileID: 21300000, guid: bde3991f219560149aecb109a8aea6b3, type: 3}
    - time: 0.25
      value: {fileID: 21300000, guid: 5f35e0dbf73e2bd4bb8189fcd03962b3, type: 3}
    - time: 0.33333334
      value: {fileID: 21300000, guid: 950268a606733494f8e4b356b0100a41, type: 3}
    - time: 0.41666666
      value: {fileID: 21300000, guid: 969fce9da2f69834182f5618b7ec2975, type: 3}
    attribute: m_Sprite
    path: 
    classID: 212
    script: {fileID: 0}
  m_SampleRate: 12
  m_WrapMode: 0
  m_Bounds:
    m_Center: {x: 0, y: 0, z: 0}
    m_Extent: {x: 0, y: 0, z: 0}
  m_ClipBindingConstant:
    genericBindings:
    - serializedVersion: 2
      path: 0
      attribute: 0
      script: {fileID: 0}
      typeID: 212
      customType: 23
      isPPtrCurve: 1
    pptrCurveMapping:
    - {fileID: 21300000, guid: 4a587e1c913636f4c812f857e5aa6c84, type: 3}
    - {fileID: 21300000, guid: c9c8166c52da6634eb2eaee5eb18d77a, type: 3}
    - {fileID: 21300000, guid: bde3991f219560149aecb109a8aea6b3, type: 3}
    - {fileID: 21300000, guid: 5f35e0dbf73e2bd4bb8189fcd03962b3, type: 3}
    - {fileID: 21300000, guid: 950268a606733494f8e4b356b0100a41, type: 3}
    - {fileID: 21300000, guid: 969fce9da2f69834182f5618b7ec2975, type: 3}
  m_AnimationClipSettings:
    serializedVersion: 2
    m_AdditiveReferencePoseClip: {fileID: 0}
    m_AdditiveReferencePoseTime: 0
    m_StartTime: 0
    m_StopTime: 0.5
    m_OrientationOffsetY: 0
    m_Level: 0
    m_CycleOffset: 0
    m_HasAdditiveReferencePose: 0
    m_LoopTime: 1
    m_LoopBlend: 0
    m_LoopBlendOrientation: 0
    m_LoopBlendPositionY: 0
    m_LoopBlendPositionXZ: 0
    m_KeepOriginalOrientation: 0
    m_KeepOriginalPositionY: 1
    m_KeepOriginalPositionXZ: 0
    m_HeightFromFeet: 0
    m_Mirror: 0
  m_EditorCurves: []
  m_EulerEditorCurves: []
  m_HasGenericRootTransform: 0
  m_HasMotionFloatCurves: 0
  m_GenerateMotionCurves: 0
  m_Events: []
